{
	"type":"object",
	"$schema": "http://json-schema.org/draft-03/schema",
	"id": "#",
	"required":true,
	"properties":{
		"ItemType": {
			"type":"object",
			"id": "ItemType",
			"required":false,
			"properties":{
				"CanStack": {
					"type":"boolean",
					"id": "CanStack",
					"required":false
				},
				"Description": {
					"type":"string",
					"id": "Description",
					"required":false
				},
				"IconPart": {
					"type":"string",
					"id": "IconPart",
					"required":false
				},
				"Icon": {
					"type":"string",
					"id": "Icon",
					"required":false
				},
				"Name": {
					"type":"string",
					"id": "Name",
					"required":false
				},
				"Scripts": {
					"type":"array",
					"id": "Scripts",
					"required":false,
					"items":
						{
							"type":"string",
							"id": "0",
							"required":false
						}
					

				},
				"Tags": {
					"type":"array",
					"id": "Tags",
					"required":false,
					"items":
						{
							"type":"string",
							"id": "1",
							"required":false
						}
					

				},
				"Type": {
					"type":"string",
					"id": "Type",
					"required":true
				},
				"Value": {
					"type":"number",
					"id": "Value",
					"required":false
				},
				"Weight": {
					"type":"number",
					"id": "Weight",
					"required":false
				}
			}
		}
	}
}
